#include<stdio.h>
int main(void)
{
    char c;
    int nl=0,cc=0,wc=0,flag=0;
    while((c=getchar())!=EOF)
        {
    if(c==' ' || c=='\n' || c=='\t')
    {
       flag=1;
       putchar('\n');
       flag=0;
    }
    else if(flag==0)
    {
        putchar(c);
    }
        }
    return 0;
}
